# WaveFront *.obj file (generated by Autodesk ATF)

mtllib Gripper finger METERS.mtl

g Solid1

v -0.036000 0.000000 -0.058500
v -0.036000 0.000000 -0.000500
v -0.036000 0.010000 -0.069500
v -0.036000 0.010000 -0.058500
v -0.036000 0.014000 -0.036084
v -0.036000 0.014000 -0.000500
v -0.036000 0.014113 -0.037426
v -0.036000 0.014450 -0.038730
v -0.036000 0.015001 -0.039958
v -0.036000 0.015750 -0.041078
v -0.036000 0.029990 -0.059000
v -0.036000 0.029990 -0.058900
v -0.036000 0.030000 -0.069500
v -0.036000 0.030000 -0.059000
v -0.035933 0.000000 -0.058750
v -0.035933 0.000000 -0.000250
v -0.035933 0.010000 -0.069750
v -0.035933 0.010000 -0.058750
v -0.035933 0.014000 -0.000250
v -0.035933 0.030000 -0.069750
v -0.035750 0.000000 -0.058933
v -0.035750 0.000000 -0.000067
v -0.035750 0.010000 -0.069933
v -0.035750 0.010000 -0.058933
v -0.035750 0.014000 -0.000067
v -0.035750 0.030000 -0.069933
v -0.035500 0.000000 -0.059000
v -0.035500 0.000000 0.000000
v -0.035500 0.010000 -0.070000
v -0.035500 0.010000 -0.059000
v -0.035500 0.014000 0.000000
v -0.035500 0.030000 -0.070000
v -0.033250 0.028000 -0.064500
v -0.033250 0.030000 -0.064500
v -0.033088 0.028000 -0.065729
v -0.033088 0.028000 -0.063271
v -0.033088 0.030000 -0.065729
v -0.033088 0.030000 -0.063271
v -0.032614 0.028000 -0.066875
v -0.032614 0.028000 -0.062125
v -0.032614 0.030000 -0.066875
v -0.032614 0.030000 -0.062125
v -0.031859 0.028000 -0.067859
v -0.031859 0.028000 -0.061141
v -0.031859 0.030000 -0.067859
v -0.031859 0.030000 -0.061141
v -0.030875 0.028000 -0.068614
v -0.030875 0.028000 -0.060386
v -0.030875 0.030000 -0.068614
v -0.030875 0.030000 -0.060386
v -0.029729 0.028000 -0.069088
v -0.029729 0.028000 -0.059912
v -0.029729 0.030000 -0.069088
v -0.029729 0.030000 -0.059912
v -0.028500 0.028000 -0.069250
v -0.028500 0.028000 -0.059750
v -0.028500 0.030000 -0.069250
v -0.028500 0.030000 -0.059750
v -0.027271 0.028000 -0.069088
v -0.027271 0.028000 -0.059912
v -0.027271 0.030000 -0.069088
v -0.027271 0.030000 -0.059912
v -0.026125 0.028000 -0.068614
v -0.026125 0.028000 -0.060386
v -0.026125 0.030000 -0.068614
v -0.026125 0.030000 -0.060386
v -0.025141 0.028000 -0.067859
v -0.025141 0.028000 -0.061141
v -0.025141 0.030000 -0.067859
v -0.025141 0.030000 -0.061141
v -0.024386 0.028000 -0.066875
v -0.024386 0.028000 -0.062125
v -0.024386 0.030000 -0.066875
v -0.024386 0.030000 -0.062125
v -0.023912 0.028000 -0.065729
v -0.023912 0.028000 -0.063271
v -0.023912 0.030000 -0.065729
v -0.023912 0.030000 -0.063271
v -0.023750 0.028000 -0.064500
v -0.023750 0.030000 -0.064500
v -0.012250 0.028000 -0.064500
v -0.012250 0.030000 -0.064500
v -0.012088 0.028000 -0.065729
v -0.012088 0.028000 -0.063271
v -0.012088 0.030000 -0.065729
v -0.012088 0.030000 -0.063271
v -0.011614 0.028000 -0.066875
v -0.011614 0.028000 -0.062125
v -0.011614 0.030000 -0.066875
v -0.011614 0.030000 -0.062125
v -0.010859 0.028000 -0.067859
v -0.010859 0.028000 -0.061141
v -0.010859 0.030000 -0.067859
v -0.010859 0.030000 -0.061141
v -0.009875 0.028000 -0.068614
v -0.009875 0.028000 -0.060386
v -0.009875 0.030000 -0.068614
v -0.009875 0.030000 -0.060386
v -0.008729 0.028000 -0.069088
v -0.008729 0.028000 -0.059912
v -0.008729 0.030000 -0.069088
v -0.008729 0.030000 -0.059912
v -0.007500 0.028000 -0.069250
v -0.007500 0.028000 -0.059750
v -0.007500 0.030000 -0.069250
v -0.007500 0.030000 -0.059750
v -0.006271 0.028000 -0.069088
v -0.006271 0.028000 -0.059912
v -0.006271 0.030000 -0.069088
v -0.006271 0.030000 -0.059912
v -0.005125 0.028000 -0.068614
v -0.005125 0.028000 -0.060386
v -0.005125 0.030000 -0.068614
v -0.005125 0.030000 -0.060386
v -0.004141 0.028000 -0.067859
v -0.004141 0.028000 -0.061141
v -0.004141 0.030000 -0.067859
v -0.004141 0.030000 -0.061141
v -0.003386 0.028000 -0.066875
v -0.003386 0.028000 -0.062125
v -0.003386 0.030000 -0.066875
v -0.003386 0.030000 -0.062125
v -0.002912 0.028000 -0.065729
v -0.002912 0.028000 -0.063271
v -0.002912 0.030000 -0.065729
v -0.002912 0.030000 -0.063271
v -0.002750 0.028000 -0.064500
v -0.002750 0.030000 -0.064500
v -0.000500 0.000000 -0.059000
v -0.000500 0.000000 0.000000
v -0.000500 0.010000 -0.070000
v -0.000500 0.010000 -0.059000
v -0.000500 0.014000 0.000000
v -0.000500 0.030000 -0.070000
v -0.000250 0.000000 -0.058933
v -0.000250 0.000000 -0.000067
v -0.000250 0.010000 -0.069933
v -0.000250 0.010000 -0.058933
v -0.000250 0.014000 -0.000067
v -0.000250 0.030000 -0.069933
v -0.000067 0.000000 -0.058750
v -0.000067 0.000000 -0.000250
v -0.000067 0.010000 -0.069750
v -0.000067 0.010000 -0.058750
v -0.000067 0.014000 -0.000250
v -0.000067 0.030000 -0.069750
v 0.000000 0.000000 -0.058500
v 0.000000 0.000000 -0.000500
v 0.000000 0.010000 -0.069500
v 0.000000 0.010000 -0.058500
v 0.000000 0.014000 -0.036084
v 0.000000 0.014000 -0.000500
v 0.000000 0.014113 -0.037426
v 0.000000 0.014450 -0.038730
v 0.000000 0.015001 -0.039958
v 0.000000 0.015750 -0.041078
v 0.000000 0.029990 -0.059000
v 0.000000 0.029990 -0.058900
v 0.000000 0.030000 -0.069500
v 0.000000 0.030000 -0.059000
vt -3.000000 0.039270 0.000000
vt -3.000000 0.013090 0.000000
vt -3.000000 -0.013090 0.000000
vt -3.000000 -0.039270 0.000000
vt -1.000000 -0.039270 0.000000
vt -1.000000 -0.013090 0.000000
vt -1.000000 0.013090 0.000000
vt -1.000000 0.039270 0.000000
vt 0.050000 3.000000 0.000000
vt 0.050000 1.000000 0.000000
vt 3.550000 1.000000 0.000000
vt 3.550000 3.000000 0.000000
vt 0.550000 1.750000 0.000000
vt 0.543301 1.775000 0.000000
vt 0.525000 1.793301 0.000000
vt 0.500000 1.800000 0.000000
vt -0.600000 1.800000 0.000000
vt -0.575000 1.793301 0.000000
vt -0.556699 1.775000 0.000000
vt -0.550000 1.750000 0.000000
vt -0.550000 -1.750000 0.000000
vt -0.556699 -1.775000 0.000000
vt -0.575000 -1.793301 0.000000
vt -0.600000 -1.800000 0.000000
vt 0.500000 -1.800000 0.000000
vt 0.525000 -1.793301 0.000000
vt 0.543301 -1.775000 0.000000
vt 0.550000 -1.750000 0.000000
vt -3.000000 0.039270 0.000000
vt -3.000000 0.013090 0.000000
vt -3.000000 -0.013090 0.000000
vt -3.000000 -0.039270 0.000000
vt -1.000000 -0.039270 0.000000
vt -1.000000 -0.013090 0.000000
vt -1.000000 0.013090 0.000000
vt -1.000000 0.039270 0.000000
vt 0.000000 1.525000 0.000000
vt 0.122939 1.508815 0.000000
vt 0.237500 1.461362 0.000000
vt 0.335876 1.385876 0.000000
vt 0.411362 1.287500 0.000000
vt 0.458815 1.172939 0.000000
vt 0.475000 1.050000 0.000000
vt 0.458815 0.927061 0.000000
vt 0.411362 0.812500 0.000000
vt 0.335876 0.714124 0.000000
vt 0.237500 0.638638 0.000000
vt 0.122939 0.591185 0.000000
vt 0.000000 0.575000 0.000000
vt -0.122939 0.591185 0.000000
vt -0.237500 0.638638 0.000000
vt -0.335876 0.714124 0.000000
vt -0.411362 0.812500 0.000000
vt -0.458815 0.927061 0.000000
vt -0.475000 1.050000 0.000000
vt -0.458815 1.172939 0.000000
vt -0.411362 1.287500 0.000000
vt -0.335876 1.385876 0.000000
vt -0.237500 1.461362 0.000000
vt -0.122939 1.508815 0.000000
vt 0.000000 -0.575000 0.000000
vt 0.122939 -0.591185 0.000000
vt 0.237500 -0.638638 0.000000
vt 0.335876 -0.714124 0.000000
vt 0.411362 -0.812500 0.000000
vt 0.458815 -0.927061 0.000000
vt 0.475000 -1.050000 0.000000
vt 0.458815 -1.172939 0.000000
vt 0.411362 -1.287500 0.000000
vt 0.335876 -1.385876 0.000000
vt 0.237500 -1.461362 0.000000
vt 0.122939 -1.508815 0.000000
vt 0.000000 -1.525000 0.000000
vt -0.122939 -1.508815 0.000000
vt -0.237500 -1.461362 0.000000
vt -0.335876 -1.385876 0.000000
vt -0.411362 -1.287500 0.000000
vt -0.458815 -1.172939 0.000000
vt -0.475000 -1.050000 0.000000
vt -0.458815 -0.927061 0.000000
vt -0.411362 -0.812500 0.000000
vt -0.335876 -0.714124 0.000000
vt -0.237500 -0.638638 0.000000
vt -0.122939 -0.591185 0.000000
vt -0.500000 1.800000 0.000000
vt -0.525000 1.793301 0.000000
vt -0.543301 1.775000 0.000000
vt -0.550000 1.750000 0.000000
vt -0.550000 -1.750000 0.000000
vt -0.543301 -1.775000 0.000000
vt -0.525000 -1.793301 0.000000
vt -0.500000 -1.800000 0.000000
vt 0.550000 -1.800000 0.000000
vt 0.550000 1.800000 0.000000
vt 0.050000 3.000000 0.000000
vt 0.050000 1.000000 0.000000
vt 1.150000 1.000000 0.000000
vt 1.150000 0.000000 0.000000
vt 6.950000 0.000000 0.000000
vt 6.950000 1.400000 0.000000
vt 3.391613 1.400000 0.000000
vt 3.257425 1.411334 0.000000
vt 3.127039 1.445016 0.000000
vt 3.004151 1.500091 0.000000
vt 2.892241 1.574999 0.000000
vt 1.110000 2.999000 0.000000
vt 1.100000 2.999000 0.000000
vt 1.100000 3.000000 0.000000
vt -0.000000 -0.039270 0.000000
vt -0.000000 -0.013090 0.000000
vt -0.000000 0.013090 0.000000
vt -0.000000 0.039270 0.000000
vt -1.000000 0.039270 0.000000
vt -1.000000 0.013090 0.000000
vt -1.000000 -0.013090 0.000000
vt -1.000000 -0.039270 0.000000
vt -3.550000 1.000000 0.000000
vt -3.550000 0.000000 0.000000
vt -0.050000 0.000000 0.000000
vt -0.050000 1.000000 0.000000
vt 2.400000 1.750000 0.000000
vt 2.393301 1.775000 0.000000
vt 2.375000 1.793301 0.000000
vt 2.350000 1.800000 0.000000
vt -3.450000 1.800000 0.000000
vt -3.475000 1.793301 0.000000
vt -3.493301 1.775000 0.000000
vt -3.500000 1.750000 0.000000
vt -3.500000 -1.750000 0.000000
vt -3.493301 -1.775000 0.000000
vt -3.475000 -1.793301 0.000000
vt -3.450000 -1.800000 0.000000
vt 2.350000 -1.800000 0.000000
vt 2.375000 -1.793301 0.000000
vt 2.393301 -1.775000 0.000000
vt 2.400000 -1.750000 0.000000
vt -0.000000 0.039270 0.000000
vt -0.000000 0.013090 0.000000
vt -0.000000 -0.013090 0.000000
vt -0.000000 -0.039270 0.000000
vt 1.000000 -0.039270 0.000000
vt 1.000000 -0.013090 0.000000
vt 1.000000 0.013090 0.000000
vt 1.000000 0.039270 0.000000
vt -1.400000 0.039270 0.000000
vt -1.400000 0.013090 0.000000
vt -1.400000 -0.013090 0.000000
vt -1.400000 -0.039270 0.000000
vt -0.000000 -0.039270 0.000000
vt -0.000000 -0.013090 0.000000
vt -0.000000 0.013090 0.000000
vt -0.000000 0.039270 0.000000
vt 3.550000 0.000000 0.000000
vt 3.550000 1.400000 0.000000
vt 0.050000 1.400000 0.000000
vt 0.050000 0.000000 0.000000
vt 3.500000 1.750000 0.000000
vt 3.493301 1.775000 0.000000
vt 3.475000 1.793301 0.000000
vt 3.450000 1.800000 0.000000
vt -0.108386 1.800000 0.000000
vt -0.108386 -1.800000 0.000000
vt 3.450000 -1.800000 0.000000
vt 3.475000 -1.793301 0.000000
vt 3.493301 -1.775000 0.000000
vt 3.500000 -1.750000 0.000000
vt -1.400000 0.039270 0.000000
vt -1.400000 0.013090 0.000000
vt -1.400000 -0.013090 0.000000
vt -1.400000 -0.039270 0.000000
vt -0.000000 -0.039270 0.000000
vt -0.000000 -0.013090 0.000000
vt -0.000000 0.013090 0.000000
vt -0.000000 0.039270 0.000000
vt 0.900000 0.000000 0.000000
vt 0.900000 0.134826 0.000000
vt 0.900000 0.269651 0.000000
vt 0.900000 0.404477 0.000000
vt 0.900000 0.539302 0.000000
vt -2.700000 0.539302 0.000000
vt -2.700000 0.404477 0.000000
vt -2.700000 0.269651 0.000000
vt -2.700000 0.134826 0.000000
vt -2.700000 0.000000 0.000000
vt -0.900000 -1.007666 0.000000
vt 2.700000 -1.007666 0.000000
vt 2.700000 1.273597 0.000000
vt -0.900000 1.273597 0.000000
vt -0.990000 -1.800000 0.000000
vt -0.990000 1.800000 0.000000
vt -1.000000 1.800000 0.000000
vt -1.000000 -1.800000 0.000000
vt 0.000000 1.599000 0.000000
vt 3.600000 1.599000 0.000000
vt 3.600000 1.600000 0.000000
vt 0.000000 1.600000 0.000000
vt 6.950000 1.000000 0.000000
vt 6.950000 3.000000 0.000000
vt 5.900000 3.000000 0.000000
vt 5.900000 2.999000 0.000000
vt 5.890000 2.999000 0.000000
vt 4.107759 1.574999 0.000000
vt 3.995849 1.500091 0.000000
vt 3.872961 1.445016 0.000000
vt 3.742575 1.411334 0.000000
vt 3.608387 1.400000 0.000000
vt 0.050000 1.400000 0.000000
vt 0.050000 0.000000 0.000000
vt 5.850000 0.000000 0.000000
vt 5.850000 1.000000 0.000000
vt 0.200000 -1.492257 0.000000
vt 0.200000 -1.367902 0.000000
vt 0.200000 -1.243547 0.000000
vt 0.200000 -1.119192 0.000000
vt 0.200000 -0.994838 0.000000
vt 0.200000 -0.870483 0.000000
vt 0.200000 -0.746128 0.000000
vt 0.200000 -0.621774 0.000000
vt 0.200000 -0.497419 0.000000
vt 0.200000 -0.373064 0.000000
vt 0.200000 -0.248709 0.000000
vt 0.200000 -0.124355 0.000000
vt 0.200000 0.000000 0.000000
vt 0.200000 0.124355 0.000000
vt 0.200000 0.248709 0.000000
vt 0.200000 0.373064 0.000000
vt 0.200000 0.497419 0.000000
vt 0.200000 0.621774 0.000000
vt 0.200000 0.746128 0.000000
vt 0.200000 0.870483 0.000000
vt 0.200000 0.994838 0.000000
vt 0.200000 1.119192 0.000000
vt 0.200000 1.243547 0.000000
vt 0.200000 1.367902 0.000000
vt 0.000000 1.492257 0.000000
vt 0.000000 1.367902 0.000000
vt 0.000000 1.243547 0.000000
vt 0.000000 1.119192 0.000000
vt 0.000000 0.994838 0.000000
vt 0.000000 0.870483 0.000000
vt 0.000000 0.746128 0.000000
vt 0.000000 0.621774 0.000000
vt 0.000000 0.497419 0.000000
vt 0.000000 0.373064 0.000000
vt 0.000000 0.248709 0.000000
vt 0.000000 0.124355 0.000000
vt 0.000000 0.000000 0.000000
vt 0.000000 -0.124355 0.000000
vt 0.000000 -0.248709 0.000000
vt 0.000000 -0.373064 0.000000
vt 0.000000 -0.497419 0.000000
vt 0.000000 -0.621774 0.000000
vt 0.000000 -0.746128 0.000000
vt 0.000000 -0.870483 0.000000
vt 0.000000 -0.994838 0.000000
vt 0.000000 -1.119192 0.000000
vt 0.000000 -1.243547 0.000000
vt 0.000000 -1.367902 0.000000
vt 0.000000 -1.492257 0.000000
vt 0.200000 1.492257 0.000000
vt 0.200000 -1.492257 0.000000
vt 0.200000 -1.367902 0.000000
vt 0.200000 -1.243547 0.000000
vt 0.200000 -1.119192 0.000000
vt 0.200000 -0.994838 0.000000
vt 0.200000 -0.870483 0.000000
vt 0.200000 -0.746128 0.000000
vt 0.200000 -0.621774 0.000000
vt 0.200000 -0.497419 0.000000
vt 0.200000 -0.373064 0.000000
vt 0.200000 -0.248709 0.000000
vt 0.200000 -0.124355 0.000000
vt 0.200000 0.000000 0.000000
vt 0.200000 0.124355 0.000000
vt 0.200000 0.248709 0.000000
vt 0.200000 0.373064 0.000000
vt 0.200000 0.497419 0.000000
vt 0.200000 0.621774 0.000000
vt 0.200000 0.746128 0.000000
vt 0.200000 0.870483 0.000000
vt 0.200000 0.994838 0.000000
vt 0.200000 1.119192 0.000000
vt 0.200000 1.243547 0.000000
vt 0.200000 1.367902 0.000000
vt 0.000000 1.492257 0.000000
vt 0.000000 1.367902 0.000000
vt 0.000000 1.243547 0.000000
vt 0.000000 1.119192 0.000000
vt 0.000000 0.994838 0.000000
vt 0.000000 0.870483 0.000000
vt 0.000000 0.746128 0.000000
vt 0.000000 0.621774 0.000000
vt 0.000000 0.497419 0.000000
vt 0.000000 0.373064 0.000000
vt 0.000000 0.248709 0.000000
vt 0.000000 0.124355 0.000000
vt 0.000000 0.000000 0.000000
vt 0.000000 -0.124355 0.000000
vt 0.000000 -0.248709 0.000000
vt 0.000000 -0.373064 0.000000
vt 0.000000 -0.497419 0.000000
vt 0.000000 -0.621774 0.000000
vt 0.000000 -0.746128 0.000000
vt 0.000000 -0.870483 0.000000
vt 0.000000 -0.994838 0.000000
vt 0.000000 -1.119192 0.000000
vt 0.000000 -1.243547 0.000000
vt 0.000000 -1.367902 0.000000
vt 0.000000 -1.492257 0.000000
vt 0.200000 1.492257 0.000000
vt 0.000000 0.475000 0.000000
vt -0.122939 0.458815 0.000000
vt -0.237500 0.411362 0.000000
vt -0.335876 0.335876 0.000000
vt -0.411362 0.237500 0.000000
vt -0.458815 0.122939 0.000000
vt -0.475000 0.000000 0.000000
vt -0.458815 -0.122939 0.000000
vt -0.411362 -0.237500 0.000000
vt -0.335876 -0.335876 0.000000
vt -0.237500 -0.411362 0.000000
vt -0.122939 -0.458815 0.000000
vt 0.000000 -0.475000 0.000000
vt 0.122939 -0.458815 0.000000
vt 0.237500 -0.411362 0.000000
vt 0.335876 -0.335876 0.000000
vt 0.411362 -0.237500 0.000000
vt 0.458815 -0.122939 0.000000
vt 0.475000 0.000000 0.000000
vt 0.458815 0.122939 0.000000
vt 0.411362 0.237500 0.000000
vt 0.335876 0.335876 0.000000
vt 0.237500 0.411362 0.000000
vt 0.122939 0.458815 0.000000
vt 0.000000 0.475000 0.000000
vt -0.122939 0.458815 0.000000
vt -0.237500 0.411362 0.000000
vt -0.335876 0.335876 0.000000
vt -0.411362 0.237500 0.000000
vt -0.458815 0.122939 0.000000
vt -0.475000 0.000000 0.000000
vt -0.458815 -0.122939 0.000000
vt -0.411362 -0.237500 0.000000
vt -0.335876 -0.335876 0.000000
vt -0.237500 -0.411362 0.000000
vt -0.122939 -0.458815 0.000000
vt 0.000000 -0.475000 0.000000
vt 0.122939 -0.458815 0.000000
vt 0.237500 -0.411362 0.000000
vt 0.335876 -0.335876 0.000000
vt 0.411362 -0.237500 0.000000
vt 0.458815 -0.122939 0.000000
vt 0.475000 0.000000 0.000000
vt 0.458815 0.122939 0.000000
vt 0.411362 0.237500 0.000000
vt 0.335876 0.335876 0.000000
vt 0.237500 0.411362 0.000000
vt 0.122939 0.458815 0.000000
vn 0.000000 0.000000 -100.000000
vn 50.000000 0.000000 -86.602539
vn 86.602539 0.000000 -50.000000
vn 100.000000 0.000000 0.000000
vn 100.000000 0.000000 0.000000
vn 86.602539 0.000000 -50.000000
vn 50.000000 0.000000 -86.602539
vn 0.000000 0.000000 -100.000000
vn 0.000000 0.000000 -100.000000
vn 0.000000 0.000000 -100.000000
vn 0.000000 0.000000 -100.000000
vn 0.000000 0.000000 -100.000000
vn 0.000000 -100.000000 0.000000
vn 0.000000 -100.000000 0.000000
vn 0.000000 -100.000000 0.000000
vn 0.000000 -100.000000 0.000000
vn 0.000000 -100.000000 0.000000
vn 0.000000 -100.000000 0.000000
vn 0.000000 -100.000000 0.000000
vn 0.000000 -100.000000 0.000000
vn 0.000000 -100.000000 0.000000
vn 0.000000 -100.000000 0.000000
vn 0.000000 -100.000000 0.000000
vn 0.000000 -100.000000 0.000000
vn 0.000000 -100.000000 0.000000
vn 0.000000 -100.000000 0.000000
vn 0.000000 -100.000000 0.000000
vn 0.000000 -100.000000 0.000000
vn -100.000000 0.000000 0.000000
vn -86.602539 0.000000 -50.000000
vn -50.000000 0.000000 -86.602539
vn 0.000000 0.000000 -100.000000
vn 0.000000 0.000000 -100.000000
vn -50.000000 0.000000 -86.602539
vn -86.602539 0.000000 -50.000000
vn -100.000000 0.000000 0.000000
vn 0.000000 100.000000 0.000000
vn 0.000000 100.000000 0.000000
vn 0.000000 100.000000 0.000000
vn 0.000000 100.000000 0.000000
vn 0.000000 100.000000 0.000000
vn 0.000000 100.000000 0.000000
vn 0.000000 100.000000 0.000000
vn 0.000000 100.000000 0.000000
vn 0.000000 100.000000 0.000000
vn 0.000000 100.000000 0.000000
vn 0.000000 100.000000 0.000000
vn 0.000000 100.000000 0.000000
vn 0.000000 100.000000 0.000000
vn 0.000000 100.000000 0.000000
vn 0.000000 100.000000 0.000000
vn 0.000000 100.000000 0.000000
vn 0.000000 100.000000 0.000000
vn 0.000000 100.000000 0.000000
vn 0.000000 100.000000 0.000000
vn 0.000000 100.000000 0.000000
vn 0.000000 100.000000 0.000000
vn 0.000000 100.000000 0.000000
vn 0.000000 100.000000 0.000000
vn 0.000000 100.000000 0.000000
vn 0.000000 100.000000 0.000000
vn 0.000000 100.000000 0.000000
vn 0.000000 100.000000 0.000000
vn 0.000000 100.000000 0.000000
vn 0.000000 100.000000 0.000000
vn 0.000000 100.000000 0.000000
vn 0.000000 100.000000 0.000000
vn 0.000000 100.000000 0.000000
vn 0.000000 100.000000 0.000000
vn 0.000000 100.000000 0.000000
vn 0.000000 100.000000 0.000000
vn 0.000000 100.000000 0.000000
vn 0.000000 100.000000 0.000000
vn 0.000000 100.000000 0.000000
vn 0.000000 100.000000 0.000000
vn 0.000000 100.000000 0.000000
vn 0.000000 100.000000 0.000000
vn 0.000000 100.000000 0.000000
vn 0.000000 100.000000 0.000000
vn 0.000000 100.000000 0.000000
vn 0.000000 100.000000 0.000000
vn 0.000000 100.000000 0.000000
vn 0.000000 100.000000 0.000000
vn 0.000000 100.000000 0.000000
vn 0.000000 100.000000 0.000000
vn 0.000000 100.000000 0.000000
vn 0.000000 100.000000 0.000000
vn 0.000000 100.000000 0.000000
vn 0.000000 100.000000 0.000000
vn 0.000000 100.000000 0.000000
vn 0.000000 100.000000 0.000000
vn 0.000000 100.000000 0.000000
vn 0.000000 100.000000 0.000000
vn 0.000000 100.000000 0.000000
vn -100.000000 0.000000 0.000000
vn -100.000000 0.000000 0.000000
vn -100.000000 0.000000 0.000000
vn -100.000000 0.000000 0.000000
vn -100.000000 0.000000 0.000000
vn -100.000000 0.000000 0.000000
vn -100.000000 0.000000 0.000000
vn -100.000000 0.000000 0.000000
vn -100.000000 0.000000 0.000000
vn -100.000000 0.000000 0.000000
vn -100.000000 0.000000 0.000000
vn -100.000000 0.000000 0.000000
vn -100.000000 0.000000 0.000000
vn -100.000000 0.000000 0.000000
vn 100.000000 0.000000 0.000000
vn 86.602539 0.000000 -50.000000
vn 50.000000 0.000000 -86.602539
vn 0.000000 0.000000 -100.000000
vn 0.000000 0.000000 -100.000000
vn 50.000000 0.000000 -86.602539
vn 86.602539 0.000000 -50.000000
vn 100.000000 0.000000 0.000000
vn 0.000000 0.000000 -100.000000
vn 0.000000 0.000000 -100.000000
vn 0.000000 0.000000 -100.000000
vn 0.000000 0.000000 -100.000000
vn 0.000000 -100.000000 0.000000
vn 0.000000 -100.000000 0.000000
vn 0.000000 -100.000000 0.000000
vn 0.000000 -100.000000 0.000000
vn 0.000000 -100.000000 0.000000
vn 0.000000 -100.000000 0.000000
vn 0.000000 -100.000000 0.000000
vn 0.000000 -100.000000 0.000000
vn 0.000000 -100.000000 0.000000
vn 0.000000 -100.000000 0.000000
vn 0.000000 -100.000000 0.000000
vn 0.000000 -100.000000 0.000000
vn 0.000000 -100.000000 0.000000
vn 0.000000 -100.000000 0.000000
vn 0.000000 -100.000000 0.000000
vn 0.000000 -100.000000 0.000000
vn 0.000000 0.000000 -100.000000
vn -50.000000 0.000000 -86.602539
vn -86.602539 0.000000 -50.000000
vn -100.000000 0.000000 0.000000
vn -100.000000 0.000000 0.000000
vn -86.602539 0.000000 -50.000000
vn -50.000000 0.000000 -86.602539
vn 0.000000 0.000000 -100.000000
vn 100.000000 0.000000 0.000000
vn 86.602539 0.000000 50.000000
vn 50.000000 0.000000 86.602539
vn 0.000000 0.000000 100.000000
vn 0.000000 0.000000 100.000000
vn 50.000000 0.000000 86.602539
vn 86.602539 0.000000 50.000000
vn 100.000000 0.000000 0.000000
vn 0.000000 0.000000 100.000000
vn 0.000000 0.000000 100.000000
vn 0.000000 0.000000 100.000000
vn 0.000000 0.000000 100.000000
vn 0.000000 100.000000 0.000000
vn 0.000000 100.000000 0.000000
vn 0.000000 100.000000 0.000000
vn 0.000000 100.000000 0.000000
vn 0.000000 100.000000 0.000000
vn 0.000000 100.000000 0.000000
vn 0.000000 100.000000 0.000000
vn 0.000000 100.000000 0.000000
vn 0.000000 100.000000 0.000000
vn 0.000000 100.000000 0.000000
vn 0.000000 0.000000 100.000000
vn -50.000000 0.000000 86.602539
vn -86.602539 0.000000 50.000000
vn -100.000000 0.000000 0.000000
vn -100.000000 0.000000 0.000000
vn -86.602539 0.000000 50.000000
vn -50.000000 0.000000 86.602539
vn 0.000000 0.000000 100.000000
vn 0.000000 78.125167 62.421614
vn 0.000000 87.488604 48.432884
vn 0.000000 94.372976 33.071765
vn 0.000000 98.583210 16.773528
vn 0.000000 100.000000 0.000000
vn 0.000000 100.000000 0.000000
vn 0.000000 98.583210 16.773528
vn 0.000000 94.372976 33.071765
vn 0.000000 87.488604 48.432884
vn 0.000000 78.125167 62.421614
vn 0.000000 78.125167 62.421614
vn 0.000000 78.125167 62.421614
vn 0.000000 78.125167 62.421614
vn 0.000000 78.125167 62.421614
vn 0.000000 100.000000 0.000000
vn 0.000000 100.000000 0.000000
vn 0.000000 100.000000 0.000000
vn 0.000000 100.000000 0.000000
vn 0.000000 0.000000 100.000000
vn 0.000000 0.000000 100.000000
vn 0.000000 0.000000 100.000000
vn 0.000000 0.000000 100.000000
vn 100.000000 0.000000 0.000000
vn 100.000000 0.000000 0.000000
vn 100.000000 0.000000 0.000000
vn 100.000000 0.000000 0.000000
vn 100.000000 0.000000 0.000000
vn 100.000000 0.000000 0.000000
vn 100.000000 0.000000 0.000000
vn 100.000000 0.000000 0.000000
vn 100.000000 0.000000 0.000000
vn 100.000000 0.000000 0.000000
vn 100.000000 0.000000 0.000000
vn 100.000000 0.000000 0.000000
vn 100.000000 0.000000 0.000000
vn 100.000000 0.000000 0.000000
vn -100.000000 0.000000 0.000000
vn -96.592581 0.000000 -25.881904
vn -86.602539 0.000000 -50.000000
vn -70.710677 0.000000 -70.710677
vn -50.000000 0.000000 -86.602539
vn -25.881904 0.000000 -96.592581
vn 0.000000 0.000000 -100.000000
vn 25.881904 0.000000 -96.592581
vn 50.000000 0.000000 -86.602539
vn 70.710677 0.000000 -70.710677
vn 86.602539 0.000000 -50.000000
vn 96.592581 0.000000 -25.881904
vn 100.000000 0.000000 0.000000
vn 96.592581 0.000000 25.881904
vn 86.602539 0.000000 50.000000
vn 70.710677 0.000000 70.710677
vn 50.000000 0.000000 86.602539
vn 25.881904 0.000000 96.592581
vn 0.000000 0.000000 100.000000
vn -25.881904 0.000000 96.592581
vn -50.000000 0.000000 86.602539
vn -70.710677 0.000000 70.710677
vn -86.602539 0.000000 50.000000
vn -96.592581 0.000000 25.881904
vn -100.000000 0.000000 0.000000
vn -96.592581 0.000000 25.881904
vn -86.602539 0.000000 50.000000
vn -70.710677 0.000000 70.710677
vn -50.000000 0.000000 86.602539
vn -25.881904 0.000000 96.592581
vn 0.000000 0.000000 100.000000
vn 25.881904 0.000000 96.592581
vn 50.000000 0.000000 86.602539
vn 70.710677 0.000000 70.710677
vn 86.602539 0.000000 50.000000
vn 96.592581 0.000000 25.881904
vn 100.000000 0.000000 0.000000
vn 96.592581 0.000000 -25.881904
vn 86.602539 0.000000 -50.000000
vn 70.710677 0.000000 -70.710677
vn 50.000000 0.000000 -86.602539
vn 25.881904 0.000000 -96.592581
vn 0.000000 0.000000 -100.000000
vn -25.881904 0.000000 -96.592581
vn -50.000000 0.000000 -86.602539
vn -70.710677 0.000000 -70.710677
vn -86.602539 0.000000 -50.000000
vn -96.592581 0.000000 -25.881904
vn -100.000000 0.000000 0.000000
vn -100.000000 0.000000 0.000000
vn -100.000000 0.000000 0.000000
vn -96.592581 0.000000 -25.881904
vn -86.602539 0.000000 -50.000000
vn -70.710677 0.000000 -70.710677
vn -50.000000 0.000000 -86.602539
vn -25.881904 0.000000 -96.592581
vn 0.000000 0.000000 -100.000000
vn 25.881904 0.000000 -96.592581
vn 50.000000 0.000000 -86.602539
vn 70.710677 0.000000 -70.710677
vn 86.602539 0.000000 -50.000000
vn 96.592581 0.000000 -25.881904
vn 100.000000 0.000000 0.000000
vn 96.592581 0.000000 25.881904
vn 86.602539 0.000000 50.000000
vn 70.710677 0.000000 70.710677
vn 50.000000 0.000000 86.602539
vn 25.881904 0.000000 96.592581
vn 0.000000 0.000000 100.000000
vn -25.881904 0.000000 96.592581
vn -50.000000 0.000000 86.602539
vn -70.710677 0.000000 70.710677
vn -86.602539 0.000000 50.000000
vn -96.592581 0.000000 25.881904
vn -100.000000 0.000000 0.000000
vn -96.592581 0.000000 25.881904
vn -86.602539 0.000000 50.000000
vn -70.710677 0.000000 70.710677
vn -50.000000 0.000000 86.602539
vn -25.881904 0.000000 96.592581
vn 0.000000 0.000000 100.000000
vn 25.881904 0.000000 96.592581
vn 50.000000 0.000000 86.602539
vn 70.710677 0.000000 70.710677
vn 86.602539 0.000000 50.000000
vn 96.592581 0.000000 25.881904
vn 100.000000 0.000000 0.000000
vn 96.592581 0.000000 -25.881904
vn 86.602539 0.000000 -50.000000
vn 70.710677 0.000000 -70.710677
vn 50.000000 0.000000 -86.602539
vn 25.881904 0.000000 -96.592581
vn 0.000000 0.000000 -100.000000
vn -25.881904 0.000000 -96.592581
vn -50.000000 0.000000 -86.602539
vn -70.710677 0.000000 -70.710677
vn -86.602539 0.000000 -50.000000
vn -96.592581 0.000000 -25.881904
vn -100.000000 0.000000 0.000000
vn -100.000000 0.000000 0.000000
vn 0.000000 100.000000 0.000000
vn 0.000000 100.000000 0.000000
vn 0.000000 100.000000 0.000000
vn 0.000000 100.000000 0.000000
vn 0.000000 100.000000 0.000000
vn 0.000000 100.000000 0.000000
vn 0.000000 100.000000 0.000000
vn 0.000000 100.000000 0.000000
vn 0.000000 100.000000 0.000000
vn 0.000000 100.000000 0.000000
vn 0.000000 100.000000 0.000000
vn 0.000000 100.000000 0.000000
vn 0.000000 100.000000 0.000000
vn 0.000000 100.000000 0.000000
vn 0.000000 100.000000 0.000000
vn 0.000000 100.000000 0.000000
vn 0.000000 100.000000 0.000000
vn 0.000000 100.000000 0.000000
vn 0.000000 100.000000 0.000000
vn 0.000000 100.000000 0.000000
vn 0.000000 100.000000 0.000000
vn 0.000000 100.000000 0.000000
vn 0.000000 100.000000 0.000000
vn 0.000000 100.000000 0.000000
vn 0.000000 100.000000 0.000000
vn 0.000000 100.000000 0.000000
vn 0.000000 100.000000 0.000000
vn 0.000000 100.000000 0.000000
vn 0.000000 100.000000 0.000000
vn 0.000000 100.000000 0.000000
vn 0.000000 100.000000 0.000000
vn 0.000000 100.000000 0.000000
vn 0.000000 100.000000 0.000000
vn 0.000000 100.000000 0.000000
vn 0.000000 100.000000 0.000000
vn 0.000000 100.000000 0.000000
vn 0.000000 100.000000 0.000000
vn 0.000000 100.000000 0.000000
vn 0.000000 100.000000 0.000000
vn 0.000000 100.000000 0.000000
vn 0.000000 100.000000 0.000000
vn 0.000000 100.000000 0.000000
vn 0.000000 100.000000 0.000000
vn 0.000000 100.000000 0.000000
vn 0.000000 100.000000 0.000000
vn 0.000000 100.000000 0.000000
vn 0.000000 100.000000 0.000000
vn 0.000000 100.000000 0.000000
usemtl 191,191,191
f 134/1/1 140/2/2 131/8/8
f 131/8/8 140/2/2 137/7/7
f 137/7/7 140/2/2 143/6/6
f 143/6/6 140/2/2 146/3/3
f 143/6/6 146/3/3 159/4/4
f 159/4/4 149/5/5 143/6/6
f 131/10/10 29/11/11 134/9/9
f 134/9/9 29/11/11 32/12/12
f 137/14/14 143/15/15 131/13/13
f 131/13/13 143/15/15 149/16/16
f 131/13/13 149/16/16 29/28/28
f 29/28/28 149/16/16 3/25/25
f 29/28/28 3/25/25 17/26/26
f 150/17/17 144/18/18 149/16/16
f 149/16/16 144/18/18 138/19/19
f 149/16/16 138/19/19 132/20/20
f 132/20/20 30/21/21 149/16/16
f 149/16/16 30/21/21 3/25/25
f 30/21/21 24/22/22 3/25/25
f 3/25/25 24/22/22 18/23/23
f 3/25/25 18/23/23 4/24/24
f 17/26/26 23/27/27 29/28/28
f 13/29/29 20/30/30 3/36/36
f 3/36/36 20/30/30 17/35/35
f 17/35/35 20/30/30 23/34/34
f 23/34/34 20/30/30 26/31/31
f 23/34/34 26/31/31 32/32/32
f 32/32/32 29/33/33 23/34/34
f 126/38/38 160/94/94 128/37/37
f 128/37/37 160/94/94 159/85/85
f 128/37/37 159/85/85 125/60/60
f 125/60/60 159/85/85 121/59/59
f 121/59/59 159/85/85 117/58/58
f 117/58/58 159/85/85 113/57/57
f 113/57/57 159/85/85 134/88/88
f 113/57/57 134/88/88 109/56/56
f 109/56/56 134/88/88 105/55/55
f 105/55/55 134/88/88 32/89/89
f 105/55/55 32/89/89 57/79/79
f 57/79/79 32/89/89 53/78/78
f 53/78/78 32/89/89 49/77/77
f 49/77/77 32/89/89 13/92/92
f 49/77/77 13/92/92 45/76/76
f 45/76/76 13/92/92 41/75/75
f 41/75/75 13/92/92 37/74/74
f 37/74/74 13/92/92 34/73/73
f 34/73/73 13/92/92 14/93/93
f 34/73/73 14/93/93 38/72/72
f 38/72/72 14/93/93 42/71/71
f 42/71/71 14/93/93 46/70/70
f 46/70/70 14/93/93 50/69/69
f 50/69/69 14/93/93 54/68/68
f 54/68/68 14/93/93 58/67/67
f 58/67/67 14/93/93 106/43/43
f 58/67/67 106/43/43 102/44/44
f 126/38/38 122/39/39 160/94/94
f 160/94/94 122/39/39 118/40/40
f 160/94/94 118/40/40 114/41/41
f 114/41/41 110/42/42 160/94/94
f 160/94/94 110/42/42 106/43/43
f 160/94/94 106/43/43 14/93/93
f 58/67/67 102/44/44 62/66/66
f 62/66/66 102/44/44 98/45/45
f 62/66/66 98/45/45 66/65/65
f 66/65/65 98/45/45 94/46/46
f 66/65/65 94/46/46 70/64/64
f 70/64/64 94/46/46 90/47/47
f 70/64/64 90/47/47 74/63/63
f 74/63/63 90/47/47 86/48/48
f 74/63/63 86/48/48 78/62/62
f 78/62/62 86/48/48 82/49/49
f 78/62/62 82/49/49 80/61/61
f 80/61/61 82/49/49 77/84/84
f 77/84/84 82/49/49 85/50/50
f 77/84/84 85/50/50 73/83/83
f 73/83/83 85/50/50 89/51/51
f 73/83/83 89/51/51 69/82/82
f 69/82/82 89/51/51 93/52/52
f 69/82/82 93/52/52 65/81/81
f 65/81/81 93/52/52 97/53/53
f 65/81/81 97/53/53 61/80/80
f 61/80/80 97/53/53 101/54/54
f 61/80/80 101/54/54 57/79/79
f 57/79/79 101/54/54 105/55/55
f 159/85/85 146/86/86 134/88/88
f 134/88/88 146/86/86 140/87/87
f 26/90/90 20/91/91 32/89/89
f 32/89/89 20/91/91 13/92/92
f 14/108/108 13/95/95 11/107/107
f 11/107/107 13/95/95 3/96/96
f 11/107/107 3/96/96 4/97/97
f 1/98/98 5/101/101 4/97/97
f 4/97/97 5/101/101 7/102/102
f 4/97/97 7/102/102 8/103/103
f 1/98/98 2/99/99 5/101/101
f 5/101/101 2/99/99 6/100/100
f 8/103/103 9/104/104 4/97/97
f 4/97/97 9/104/104 10/105/105
f 4/97/97 10/105/105 11/107/107
f 11/107/107 10/105/105 12/106/106
f 147/109/109 141/110/110 150/116/116
f 150/116/116 141/110/110 144/115/115
f 144/115/115 141/110/110 138/114/114
f 138/114/114 141/110/110 135/111/111
f 138/114/114 135/111/111 129/112/112
f 129/112/112 132/113/113 138/114/114
f 129/118/118 27/119/119 132/117/117
f 132/117/117 27/119/119 30/120/120
f 135/122/122 147/124/124 129/121/121
f 129/121/121 147/124/124 148/125/125
f 129/121/121 148/125/125 130/128/128
f 130/128/128 148/125/125 136/127/127
f 136/127/127 148/125/125 142/126/126
f 135/122/122 141/123/123 147/124/124
f 129/121/121 130/128/128 27/136/136
f 27/136/136 130/128/128 28/129/129
f 27/136/136 28/129/129 1/133/133
f 1/133/133 28/129/129 2/132/132
f 2/132/132 28/129/129 22/130/130
f 2/132/132 22/130/130 16/131/131
f 15/134/134 21/135/135 1/133/133
f 1/133/133 21/135/135 27/136/136
f 27/137/137 21/138/138 30/144/144
f 30/144/144 21/138/138 24/143/143
f 24/143/143 21/138/138 18/142/142
f 18/142/142 21/138/138 15/139/139
f 18/142/142 15/139/139 1/140/140
f 1/140/140 4/141/141 18/142/142
f 152/145/145 145/146/146 148/152/152
f 148/152/152 145/146/146 142/151/151
f 142/151/151 145/146/146 136/150/150
f 136/150/150 145/146/146 139/147/147
f 136/150/150 139/147/147 133/148/148
f 133/148/148 130/149/149 136/150/150
f 133/154/154 31/155/155 130/153/153
f 130/153/153 31/155/155 28/156/156
f 31/166/166 133/157/157 152/160/160
f 152/160/160 133/157/157 139/158/158
f 152/160/160 139/158/158 145/159/159
f 151/161/161 5/162/162 152/160/160
f 152/160/160 5/162/162 6/163/163
f 152/160/160 6/163/163 31/166/166
f 31/166/166 6/163/163 25/165/165
f 25/165/165 6/163/163 19/164/164
f 31/167/167 25/168/168 28/174/174
f 28/174/174 25/168/168 22/173/173
f 22/173/173 25/168/168 16/172/172
f 16/172/172 25/168/168 19/169/169
f 16/172/172 19/169/169 6/170/170
f 6/170/170 2/171/171 16/172/172
f 156/184/184 10/175/175 155/183/183
f 155/183/183 10/175/175 9/176/176
f 155/183/183 9/176/176 154/182/182
f 154/182/182 9/176/176 8/177/177
f 154/182/182 8/177/177 153/181/181
f 153/181/181 8/177/177 7/178/178
f 153/181/181 7/178/178 151/180/180
f 151/180/180 7/178/178 5/179/179
f 10/185/185 156/186/186 12/188/188
f 12/188/188 156/186/186 158/187/187
f 158/190/190 157/191/191 12/189/189
f 12/189/189 157/191/191 11/192/192
f 11/193/193 157/194/194 14/196/196
f 14/196/196 157/194/194 160/195/195
f 150/210/210 149/197/197 157/200/200
f 157/200/200 149/197/197 159/198/198
f 157/200/200 159/198/198 160/199/199
f 158/201/201 156/202/202 157/200/200
f 157/200/200 156/202/202 150/210/210
f 156/202/202 155/203/203 150/210/210
f 150/210/210 155/203/203 154/204/204
f 150/210/210 154/204/204 153/205/205
f 153/205/205 151/206/206 150/210/210
f 150/210/210 151/206/206 147/209/209
f 147/209/209 151/206/206 148/208/208
f 148/208/208 151/206/206 152/207/207
f 124/212/212 126/258/258 127/211/211
f 127/211/211 126/258/258 128/259/259
f 127/260/260 128/235/235 123/234/234
f 123/234/234 128/235/235 125/236/236
f 123/234/234 125/236/236 119/233/233
f 119/233/233 125/236/236 121/237/237
f 119/233/233 121/237/237 115/232/232
f 115/232/232 121/237/237 117/238/238
f 115/232/232 117/238/238 111/231/231
f 111/231/231 117/238/238 113/239/239
f 111/231/231 113/239/239 107/230/230
f 107/230/230 113/239/239 109/240/240
f 107/230/230 109/240/240 103/229/229
f 103/229/229 109/240/240 105/241/241
f 103/229/229 105/241/241 99/228/228
f 99/228/228 105/241/241 101/242/242
f 99/228/228 101/242/242 95/227/227
f 95/227/227 101/242/242 97/243/243
f 95/227/227 97/243/243 91/226/226
f 91/226/226 97/243/243 93/244/244
f 91/226/226 93/244/244 87/225/225
f 87/225/225 93/244/244 89/245/245
f 87/225/225 89/245/245 83/224/224
f 83/224/224 89/245/245 85/246/246
f 83/224/224 85/246/246 81/223/223
f 81/223/223 85/246/246 82/247/247
f 81/223/223 82/247/247 84/222/222
f 84/222/222 82/247/247 86/248/248
f 84/222/222 86/248/248 88/221/221
f 88/221/221 86/248/248 90/249/249
f 88/221/221 90/249/249 92/220/220
f 92/220/220 90/249/249 94/250/250
f 92/220/220 94/250/250 96/219/219
f 96/219/219 94/250/250 98/251/251
f 96/219/219 98/251/251 100/218/218
f 100/218/218 98/251/251 102/252/252
f 100/218/218 102/252/252 104/217/217
f 104/217/217 102/252/252 106/253/253
f 104/217/217 106/253/253 108/216/216
f 108/216/216 106/253/253 110/254/254
f 108/216/216 110/254/254 112/215/215
f 112/215/215 110/254/254 114/255/255
f 112/215/215 114/255/255 116/214/214
f 116/214/214 114/255/255 118/256/256
f 116/214/214 118/256/256 120/213/213
f 120/213/213 118/256/256 122/257/257
f 120/213/213 122/257/257 124/212/212
f 124/212/212 122/257/257 126/258/258
f 76/262/262 78/308/308 79/261/261
f 79/261/261 78/308/308 80/309/309
f 79/310/310 80/285/285 75/284/284
f 75/284/284 80/285/285 77/286/286
f 75/284/284 77/286/286 71/283/283
f 71/283/283 77/286/286 73/287/287
f 71/283/283 73/287/287 67/282/282
f 67/282/282 73/287/287 69/288/288
f 67/282/282 69/288/288 63/281/281
f 63/281/281 69/288/288 65/289/289
f 63/281/281 65/289/289 59/280/280
f 59/280/280 65/289/289 61/290/290
f 59/280/280 61/290/290 55/279/279
f 55/279/279 61/290/290 57/291/291
f 55/279/279 57/291/291 51/278/278
f 51/278/278 57/291/291 53/292/292
f 51/278/278 53/292/292 47/277/277
f 47/277/277 53/292/292 49/293/293
f 47/277/277 49/293/293 43/276/276
f 43/276/276 49/293/293 45/294/294
f 43/276/276 45/294/294 39/275/275
f 39/275/275 45/294/294 41/295/295
f 39/275/275 41/295/295 35/274/274
f 35/274/274 41/295/295 37/296/296
f 35/274/274 37/296/296 33/273/273
f 33/273/273 37/296/296 34/297/297
f 33/273/273 34/297/297 36/272/272
f 36/272/272 34/297/297 38/298/298
f 36/272/272 38/298/298 40/271/271
f 40/271/271 38/298/298 42/299/299
f 40/271/271 42/299/299 44/270/270
f 44/270/270 42/299/299 46/300/300
f 44/270/270 46/300/300 48/269/269
f 48/269/269 46/300/300 50/301/301
f 48/269/269 50/301/301 52/268/268
f 52/268/268 50/301/301 54/302/302
f 52/268/268 54/302/302 56/267/267
f 56/267/267 54/302/302 58/303/303
f 56/267/267 58/303/303 60/266/266
f 60/266/266 58/303/303 62/304/304
f 60/266/266 62/304/304 64/265/265
f 64/265/265 62/304/304 66/305/305
f 64/265/265 66/305/305 68/264/264
f 68/264/264 66/305/305 70/306/306
f 68/264/264 70/306/306 72/263/263
f 72/263/263 70/306/306 74/307/307
f 72/263/263 74/307/307 76/262/262
f 76/262/262 74/307/307 78/308/308
f 127/311/311 123/312/312 124/334/334
f 124/334/334 123/312/312 120/333/333
f 120/333/333 123/312/312 119/313/313
f 120/333/333 119/313/313 116/332/332
f 116/332/332 119/313/313 115/314/314
f 116/332/332 115/314/314 112/331/331
f 112/331/331 115/314/314 111/315/315
f 112/331/331 111/315/315 108/330/330
f 108/330/330 111/315/315 107/316/316
f 108/330/330 107/316/316 104/329/329
f 104/329/329 107/316/316 103/317/317
f 104/329/329 103/317/317 100/328/328
f 100/328/328 103/317/317 99/318/318
f 100/328/328 99/318/318 96/327/327
f 96/327/327 99/318/318 95/319/319
f 96/327/327 95/319/319 92/326/326
f 92/326/326 95/319/319 91/320/320
f 92/326/326 91/320/320 88/325/325
f 88/325/325 91/320/320 87/321/321
f 88/325/325 87/321/321 84/324/324
f 84/324/324 87/321/321 83/322/322
f 84/324/324 83/322/322 81/323/323
f 79/335/335 75/336/336 76/358/358
f 76/358/358 75/336/336 72/357/357
f 72/357/357 75/336/336 71/337/337
f 72/357/357 71/337/337 68/356/356
f 68/356/356 71/337/337 67/338/338
f 68/356/356 67/338/338 64/355/355
f 64/355/355 67/338/338 63/339/339
f 64/355/355 63/339/339 60/354/354
f 60/354/354 63/339/339 59/340/340
f 60/354/354 59/340/340 56/353/353
f 56/353/353 59/340/340 55/341/341
f 56/353/353 55/341/341 52/352/352
f 52/352/352 55/341/341 51/342/342
f 52/352/352 51/342/342 48/351/351
f 48/351/351 51/342/342 47/343/343
f 48/351/351 47/343/343 44/350/350
f 44/350/350 47/343/343 43/344/344
f 44/350/350 43/344/344 40/349/349
f 40/349/349 43/344/344 39/345/345
f 40/349/349 39/345/345 36/348/348
f 36/348/348 39/345/345 35/346/346
f 36/348/348 35/346/346 33/347/347

# 160 vertices
# 358 texture params
# 358 normals
# 316 facets

# 1 groups
