# .PCD v0.7 - Point Cloud Data file format
VERSION 0.7
FIELDS x y z
SIZE 4 4 4
TYPE F F F
COUNT 1 1 1
WIDTH 24
HEIGHT 1
VIEWPOINT 0 0 0 1 0 0 0
POINTS 24
DATA ascii
-0.021808788 -0.0019957386 -0.10514318
0.022954464 -0.0024065748 -0.10454859
-0.021983793 0.003350486 -0.10533262
0.023993356 0.0037124427 -0.10474306
-0.05676686 -0.0015815017 -0.076617301
-0.019860305 -0.0027301982 -0.079766646
0.019183971 -0.0033320363 -0.0794845
0.059732832 -0.0016236214 -0.075515665
-0.056776315 0.0030057679 -0.076837048
-0.021332966 0.0041407929 -0.079295613
0.020719359 0.0048923343 -0.079329774
0.05988219 0.0030646676 -0.076097861
-0.0028463893 -0.001990149 -0.025587941
0.0055445302 -0.0022340135 -0.024767419
-0.003070008 0.0035468973 -0.025502484
0.0061551635 0.0040169284 -0.025331905
-0.010561989 -0.0042689303 0.02335372
0.0126327 -0.0048847185 0.023735974
-0.01178838 0.0054754438 0.024086548
0.013934739 0.0062866146 0.024127934
-0.0048919572 -0.0018929387 0.060209066
0.0078216912 -0.0019887553 0.060475934
-0.0052761952 0.0033999549 0.060230553
0.0083682258 0.0036202404 0.060547877
