eaaComplete: Vector3D(-4.61992, 4.86522, 5.19257)
posComplete: Vector3D(0.394589, -3.14542, 0.430122)

camTbaseVec: 4
EAA: Vector3D(-1.15498, 1.21631, 1.29814)
Vec to EAA:  EAA { -1.15498, 1.21631, 1.29814}
EAA to rotation: Rotation3D(-0.0712667, -0.997282, -0.0187138, 0.0461735, -0.0220398, 0.99869, -0.996388, 0.0703092, 0.0476187)
Pos: Vector3D(0.0986472, -0.786355, 0.10753)

CAM TO BASE COMPLETE TRANSFORM: Transform3D(Vector3D(0.0986472, -0.786355, 0.10753), Rotation3D(-0.0712667, -0.997282, -0.0187138, 0.0461735, -0.0220398, 0.99869, -0.996388, 0.0703092, 0.0476187))
